102-116,0.05
102-200,0.9
103-107,0.05
103-108,0.05
105-106,0.05
105-110,0.3
105-117,0.3
106-107,0.05
106-109,0.5
106-117,0.05
106-118,0.05
107-108,0.9
107-109,0.9
107-113,0.9
107-114,0.9
107-140,0.9
108-113,0.1
108-116,0.1
108-119,0.05
108-127,0.1
109-114,0.1
109-118,0.05
109-121,0.1
110-117,0.3
110-120,0.1
110-124,0.3
112-123,0.05
113-127,0.1
113-140,0.5
114-121,0.1
114-125,0.1
114-140,0.5
116-119,0.05
116-132,0.3
116-200,0.9
117-118,0.05
117-124,0.3
117-179,0.05
118-121,0.05
118-179,0.05
119-127,0.05
119-132,0.05
120-124,0.1
120-131,0.3
120-146,0.3
121-125,0.1
121-162,0.1
121-179,0.1
122-123,0.05
122-135,0.05
124-131,0.05
124-179,0.05
125-140,0.5
125-151,0.1
127-132,0.1
127-138,0.1
127-140,0.5
130-181,0.9
130-199,0.1
131-146,0.05
131-155,0.1
132-138,0.1
132-181,0.5
134-135,0.9
134-147,0.3
134-165,0.05
138-140,0.5
138-181,0.05
140-149,0.5
140-151,0.5
140-181,0.9
146-147,0.1
146-155,0.1
146-157,0.1
146-158,0.05
146-160,0.05
147-160,0.05
147-165,0.3
148-181,0.9
148-199,0.05
149-151,0.5
149-161,0.3
149-173,0.3
149-181,0.9
151-161,0.3
151-162,0.1
155-157,0.3
155-179,0.05
157-158,0.05
157-159,0.5
157-179,0.05
158-159,0.05
158-160,0.05
159-160,0.5
159-179,0.05
160-165,0.3
160-179,0.05
161-162,0.1
161-173,0.3
161-185,0.05
162-179,0.05
162-185,0.05
164-187,0.9
165-179,0.05
169-174,0.3
169-187,0.3
170-174,0.3
170-175,0.3
170-187,0.3
172-182,0.05
172-187,0.9
172-202,0.05
173-181,0.05
173-185,0.05
174-175,0.3
174-187,0.9
174-189,0.3
175-189,0.3
175-201,0.3
178-183,0.3
178-187,0.9
178-189,0.05
179-185,0.05
179-190,0.05
180-182,0.05
180-187,0.9
181-182,0.05
181-185,0.05
181-186,0.05
181-199,0.055
182-186,0.1
182-187,0.18
183-184,0.3
183-187,0.9
183-189,0.05
184-187,0.9
184-189,0.3
184-192,0.3
184-198,0.3
185-190,0.05
186-187,0.9
187-189,0.05
187-198,0.9
188-189,0.3
188-191,0.3
188-194,0.3
188-196,0.05
188-198,0.1
189-192,0.3
189-198,0.05
189-201,0.3
191-196,0.3
191-198,0.1
192-198,0.3
193-198,0.05
194-196,0.05
194-197,0.1
195-196,0.05
195-198,0.05
196-197,0.05
196-198,0.216262905735441
197-198,0.3
35-107,0.9
35-47,0.3
45-47,0.05
45-59,0.3
47-107,0.3
47-51,0.3
47-65,0.05
47-71,0.3
50-107,0.9
50-80,0.3
51-107,0.9
51-65,0.05
51-81,0.3
59-66,0.9
59-71,0.05
65-71,0.05
65-81,0.05
66-71,0.05
71-72,0.05
71-81,0.3
71-87,0.9
72-81,0.05
72-82,0.05
72-87,0.05
77-106,0.05
77-80,0.3
80-106,0.05
80-107,0.9
81-107,0.9
81-82,0.3
82-107,0.05
82-87,0.9
87-103,0.05
87-107,0.9
87-108,0.9
92-108,0.3
99-108,0.05
99-116,0.05
